{
	"id": "c6c65057-57ca-4194-8cb4-eed9fade8fa6",
	"name": "ci",
	"values": [
		{
			"key": "host",
			"value": "order-microservice",
			"description": "",
			"enabled": true
		},
		{
			"key": "port",
			"value": "8080",
			"description": "",
			"enabled": true
		},
		{
			"key": "context-path",
			"value": "v1",
			"description": "",
			"enabled": true
        }
	],
	"_postman_variable_scope": "environment",
	"_postman_exported_at": "2019-01-05T23:26:27.535Z",
	"_postman_exported_using": "Postman/6.5.3"
}
